[gd_scene load_steps=5 format=3 uid="uid://eerqpr05s6d4"]

[ext_resource type="Script" path="res://Assets/Effects/BulletTracer.gd" id="1_prhxw"]

[sub_resource type="StandardMaterial3D" id="StandardMaterial3D_lgb7o"]
resource_name = "BulletTracerMaterial"
cull_mode = 2
vertex_color_use_as_albedo = true
albedo_color = Color(1, 0.627451, 0, 1)
metallic = 1.0
emission_enabled = true
emission = Color(1, 1, 1, 1)
disable_receive_shadows = true

[sub_resource type="ArrayMesh" id="ArrayMesh_ee1b4"]
_surfaces = [{
"aabb": AABB(-0.0866026, -0.075, -12.2613, 0.173215, 0.15, 12.3613),
"format": 4097,
"index_count": 90,
"index_data": PackedByteArray(7, 0, 2, 0, 0, 0, 0, 0, 1, 0, 13, 0, 0, 0, 2, 0, 1, 0, 13, 0, 1, 0, 8, 0, 7, 0, 4, 0, 2, 0, 2, 0, 3, 0, 1, 0, 2, 0, 4, 0, 3, 0, 1, 0, 3, 0, 8, 0, 7, 0, 6, 0, 4, 0, 4, 0, 5, 0, 3, 0, 4, 0, 6, 0, 5, 0, 3, 0, 5, 0, 8, 0, 7, 0, 10, 0, 6, 0, 6, 0, 9, 0, 5, 0, 6, 0, 10, 0, 9, 0, 5, 0, 9, 0, 8, 0, 7, 0, 12, 0, 10, 0, 10, 0, 11, 0, 9, 0, 10, 0, 12, 0, 11, 0, 9, 0, 11, 0, 8, 0, 7, 0, 0, 0, 12, 0, 12, 0, 13, 0, 11, 0, 12, 0, 0, 0, 13, 0, 11, 0, 13, 0, 8, 0, 6, 0, 14, 0, 10, 0, 12, 0, 14, 0, 0, 0, 4, 0, 14, 0, 6, 0, 10, 0, 14, 0, 12, 0, 2, 0, 14, 0, 4, 0, 0, 0, 14, 0, 2, 0),
"lods": [5.30833, PackedByteArray(7, 0, 2, 0, 0, 0, 0, 0, 1, 0, 13, 0, 0, 0, 2, 0, 1, 0, 13, 0, 1, 0, 8, 0, 7, 0, 4, 0, 2, 0, 2, 0, 3, 0, 1, 0, 2, 0, 4, 0, 3, 0, 1, 0, 3, 0, 8, 0, 7, 0, 6, 0, 4, 0, 4, 0, 5, 0, 3, 0, 4, 0, 6, 0, 5, 0, 3, 0, 5, 0, 8, 0, 7, 0, 10, 0, 6, 0, 6, 0, 9, 0, 5, 0, 6, 0, 10, 0, 9, 0, 5, 0, 9, 0, 8, 0, 7, 0, 12, 0, 10, 0, 10, 0, 11, 0, 9, 0, 10, 0, 12, 0, 11, 0, 9, 0, 11, 0, 8, 0), 7.97207, PackedByteArray(7, 0, 3, 0, 0, 0, 0, 0, 1, 0, 13, 0, 0, 0, 2, 0, 1, 0, 13, 0, 1, 0, 8, 0, 7, 0, 4, 0, 2, 0, 2, 0, 3, 0, 1, 0, 2, 0, 4, 0, 3, 0, 1, 0, 3, 0, 8, 0, 7, 0, 6, 0, 4, 0, 4, 0, 5, 0, 3, 0, 4, 0, 6, 0, 5, 0, 3, 0, 5, 0, 8, 0), 10.8683, PackedByteArray(7, 0, 3, 0, 13, 0, 0, 0, 1, 0, 13, 0, 0, 0, 2, 0, 1, 0, 13, 0, 1, 0, 8, 0, 7, 0, 4, 0, 2, 0, 2, 0, 3, 0, 1, 0, 2, 0, 4, 0, 3, 0, 1, 0, 3, 0, 8, 0, 7, 0, 6, 0, 4, 0, 4, 0, 5, 0, 3, 0), 12.0821, PackedByteArray(7, 0, 3, 0, 13, 0, 11, 0, 1, 0, 13, 0, 0, 0, 2, 0, 1, 0, 13, 0, 1, 0, 8, 0, 7, 0, 4, 0, 2, 0, 2, 0, 3, 0, 1, 0, 2, 0, 4, 0, 3, 0), 12.0942, PackedByteArray(7, 0, 3, 0, 13, 0, 11, 0, 11, 0, 13, 0, 0, 0, 2, 0, 1, 0, 13, 0, 1, 0, 8, 0)],
"name": "BulletTracerMaterial",
"primitive": 3,
"vertex_count": 15,
"vertex_data": PackedByteArray(168, 92, 177, 61, 200, 204, 204, 49, 144, 167, 249, 189, 160, 81, 12, 61, 16, 10, 115, 189, 192, 39, 48, 60, 176, 92, 49, 61, 152, 153, 153, 189, 144, 167, 249, 189, 152, 81, 12, 189, 16, 10, 115, 189, 200, 39, 48, 60, 176, 92, 49, 189, 152, 153, 153, 189, 144, 167, 249, 189, 152, 81, 140, 189, 80, 176, 16, 178, 208, 39, 48, 60, 176, 92, 177, 189, 200, 204, 204, 177, 144, 167, 249, 189, 208, 204, 76, 178, 208, 204, 76, 165, 91, 46, 68, 193, 0, 0, 0, 0, 208, 204, 76, 165, 208, 204, 204, 61, 152, 81, 12, 189, 16, 10, 115, 61, 216, 39, 48, 60, 176, 92, 49, 189, 152, 153, 153, 61, 144, 167, 249, 189, 160, 81, 12, 61, 16, 10, 115, 61, 200, 39, 48, 60, 176, 92, 49, 61, 152, 153, 153, 61, 144, 167, 249, 189, 152, 81, 140, 61, 128, 91, 153, 178, 192, 39, 48, 60, 0, 0, 0, 0, 0, 0, 0, 0, 158, 98, 200, 192)
}]
blend_shape_mode = 0

[sub_resource type="ArrayMesh" id="ArrayMesh_lv12o"]
resource_name = "BulletTracer_Sphere"
_surfaces = [{
"aabb": AABB(-0.0866026, -0.075, -12.2613, 0.173215, 0.15, 12.3613),
"attribute_data": PackedByteArray(77, 77, 77, 255, 0, 0, 128, 63, 138, 103, 123, 63, 255, 255, 255, 255, 8, 162, 50, 63, 210, 38, 126, 63, 77, 77, 77, 255, 15, 1, 64, 63, 138, 103, 123, 63, 255, 255, 255, 255, 241, 187, 154, 62, 210, 38, 126, 63, 77, 77, 77, 255, 78, 0, 128, 62, 138, 103, 123, 63, 255, 255, 255, 255, 241, 225, 213, 61, 210, 38, 126, 63, 77, 77, 77, 255, 0, 0, 0, 0, 138, 103, 123, 63, 0, 0, 0, 255, 233, 0, 0, 63, 0, 0, 0, 0, 255, 255, 255, 255, 233, 0, 0, 63, 0, 0, 128, 63, 255, 255, 255, 255, 241, 187, 154, 62, 210, 38, 126, 63, 77, 77, 77, 255, 78, 0, 128, 62, 138, 103, 123, 63, 255, 255, 255, 255, 8, 162, 50, 63, 210, 38, 126, 63, 77, 77, 77, 255, 15, 1, 64, 63, 138, 103, 123, 63, 255, 255, 255, 255, 248, 68, 101, 63, 210, 38, 126, 63, 0, 0, 0, 255, 233, 0, 0, 63, 190, 124, 248, 62),
"format": 4127,
"index_count": 90,
"index_data": PackedByteArray(7, 0, 2, 0, 0, 0, 0, 0, 1, 0, 13, 0, 0, 0, 2, 0, 1, 0, 13, 0, 1, 0, 8, 0, 7, 0, 4, 0, 2, 0, 2, 0, 3, 0, 1, 0, 2, 0, 4, 0, 3, 0, 1, 0, 3, 0, 8, 0, 7, 0, 6, 0, 4, 0, 4, 0, 5, 0, 3, 0, 4, 0, 6, 0, 5, 0, 3, 0, 5, 0, 8, 0, 7, 0, 10, 0, 6, 0, 6, 0, 9, 0, 5, 0, 6, 0, 10, 0, 9, 0, 5, 0, 9, 0, 8, 0, 7, 0, 12, 0, 10, 0, 10, 0, 11, 0, 9, 0, 10, 0, 12, 0, 11, 0, 9, 0, 11, 0, 8, 0, 7, 0, 0, 0, 12, 0, 12, 0, 13, 0, 11, 0, 12, 0, 0, 0, 13, 0, 11, 0, 13, 0, 8, 0, 6, 0, 14, 0, 10, 0, 12, 0, 14, 0, 0, 0, 4, 0, 14, 0, 6, 0, 10, 0, 14, 0, 12, 0, 2, 0, 14, 0, 4, 0, 0, 0, 14, 0, 2, 0),
"lods": [5.30833, PackedByteArray(7, 0, 1, 0, 13, 0, 13, 0, 1, 0, 8, 0, 7, 0, 3, 0, 1, 0, 1, 0, 3, 0, 8, 0, 7, 0, 5, 0, 3, 0, 3, 0, 5, 0, 8, 0, 7, 0, 9, 0, 5, 0, 5, 0, 9, 0, 8, 0, 7, 0, 12, 0, 9, 0, 9, 0, 12, 0, 11, 0, 9, 0, 11, 0, 8, 0, 7, 0, 13, 0, 12, 0, 12, 0, 13, 0, 11, 0, 11, 0, 13, 0, 8, 0, 5, 0, 14, 0, 9, 0, 12, 0, 14, 0, 13, 0, 3, 0, 14, 0, 5, 0, 9, 0, 14, 0, 12, 0, 1, 0, 14, 0, 3, 0, 13, 0, 14, 0, 1, 0), 7.97207, PackedByteArray(7, 0, 3, 0, 13, 0, 13, 0, 3, 0, 8, 0, 7, 0, 5, 0, 3, 0, 3, 0, 5, 0, 8, 0, 7, 0, 11, 0, 5, 0, 5, 0, 11, 0, 8, 0, 7, 0, 13, 0, 11, 0, 11, 0, 13, 0, 8, 0, 11, 0, 14, 0, 13, 0, 3, 0, 14, 0, 5, 0, 5, 0, 14, 0, 11, 0, 13, 0, 14, 0, 3, 0), 10.8683, PackedByteArray(7, 0, 3, 0, 13, 0, 13, 0, 3, 0, 5, 0, 7, 0, 5, 0, 3, 0, 7, 0, 11, 0, 5, 0, 7, 0, 13, 0, 11, 0, 11, 0, 13, 0, 5, 0, 11, 0, 14, 0, 13, 0, 3, 0, 14, 0, 5, 0, 5, 0, 14, 0, 11, 0, 13, 0, 14, 0, 3, 0), 12.0821, PackedByteArray(7, 0, 3, 0, 11, 0, 11, 0, 3, 0, 5, 0, 7, 0, 5, 0, 3, 0, 7, 0, 11, 0, 5, 0, 3, 0, 14, 0, 5, 0, 5, 0, 14, 0, 11, 0, 11, 0, 14, 0, 3, 0), 12.0942, PackedByteArray(7, 0, 3, 0, 11, 0, 7, 0, 11, 0, 3, 0, 3, 0, 14, 0, 11, 0, 11, 0, 14, 0, 3, 0)],
"material": SubResource( "StandardMaterial3D_lgb7o" ),
"name": "BulletTracerMaterial",
"primitive": 3,
"vertex_count": 15,
"vertex_data": PackedByteArray(168, 92, 177, 61, 200, 204, 204, 49, 144, 167, 249, 189, 254, 255, 39, 33, 255, 249, 79, 31, 160, 81, 12, 61, 16, 10, 115, 189, 192, 39, 48, 60, 238, 134, 97, 43, 186, 255, 251, 31, 176, 92, 49, 61, 152, 153, 153, 189, 144, 167, 249, 189, 255, 18, 33, 33, 186, 255, 251, 31, 152, 81, 12, 189, 16, 10, 115, 189, 200, 39, 48, 60, 16, 133, 97, 43, 186, 255, 243, 31, 176, 92, 49, 189, 152, 153, 153, 189, 144, 167, 249, 189, 255, 16, 33, 33, 186, 255, 243, 31, 152, 81, 140, 189, 80, 176, 16, 178, 208, 39, 48, 60, 34, 252, 103, 43, 36, 210, 15, 230, 176, 92, 177, 189, 200, 204, 204, 177, 144, 167, 249, 189, 0, 252, 39, 33, 255, 1, 160, 32, 208, 204, 76, 178, 208, 204, 76, 165, 91, 46, 68, 193, 255, 253, 7, 0, 255, 255, 247, 223, 0, 0, 0, 0, 208, 204, 76, 165, 208, 204, 204, 61, 255, 253, 247, 63, 255, 255, 247, 223, 152, 81, 12, 189, 16, 10, 115, 61, 216, 39, 48, 60, 16, 117, 110, 43, 186, 255, 251, 223, 176, 92, 49, 189, 152, 153, 153, 61, 144, 167, 249, 189, 255, 232, 46, 33, 186, 255, 251, 223, 160, 81, 12, 61, 16, 10, 115, 61, 200, 39, 48, 60, 238, 118, 110, 43, 186, 255, 243, 223, 176, 92, 49, 61, 152, 153, 153, 61, 144, 167, 249, 189, 255, 234, 46, 33, 186, 255, 243, 223, 152, 81, 140, 61, 128, 91, 153, 178, 192, 39, 48, 60, 220, 255, 103, 43, 36, 42, 224, 217, 0, 0, 0, 0, 0, 0, 0, 0, 158, 98, 200, 192, 255, 253, 7, 0, 255, 255, 247, 31)
}]
blend_shape_mode = 0
shadow_mesh = SubResource( "ArrayMesh_ee1b4" )

[node name="BulletTracer" type="Node3D"]
script = ExtResource( "1_prhxw" )

[node name="RayCast3D" type="RayCast3D" parent="."]
transform = Transform3D(-5.73206e-15, 1, 4.37114e-08, 1, 1.91069e-15, 8.74226e-08, 8.74226e-08, 4.37114e-08, -1, 0, 0, -3.99155)
target_position = Vector3(0, 0, 5)
collision_mask = 3
script = null

[node name="Tracer" type="MeshInstance3D" parent="."]
transform = Transform3D(7.54979e-09, 0.1, 2.18557e-08, 0.1, -7.54979e-09, -2.18557e-08, -4.37114e-09, 4.37114e-09, -0.5, 0, 0, -3.88725)
layers = 4
cast_shadow = 0
mesh = SubResource( "ArrayMesh_lv12o" )
skeleton = NodePath("")
surface_material_override/0 = null
script = null
