[gd_scene load_steps=6 format=3 uid="uid://dfhfn7ggr4bbn"]

[ext_resource type="Script" path="res://Assets/Props/MeatBall.gd" id="1_awbjo"]
[ext_resource type="Material" uid="uid://dj6e45gkswx0k" path="res://Assets/Materials/MeatBall/MeatBall.tres" id="2_3ls50"]
[ext_resource type="PackedScene" uid="uid://c5cwnfuw4go1b" path="res://Assets/Audio/SoundPlayer.tscn" id="2_teo3o"]

[sub_resource type="SphereShape3D" id="SphereShape3D_5p4kk"]

[sub_resource type="SphereMesh" id="SphereMesh_3dtk6"]
material = ExtResource( "2_3ls50" )

[node name="MeatBall" type="StaticBody3D"]
transform = Transform3D(1, 0, 0, 0, 1, 0, 0, 0, 1, 20.1985, 7.60279, 4.07722)
script = ExtResource( "1_awbjo" )

[node name="CollisionShape3D" type="CollisionShape3D" parent="."]
shape = SubResource( "SphereShape3D_5p4kk" )

[node name="MeshInstance3D" type="MeshInstance3D" parent="."]
layers = 2
mesh = SubResource( "SphereMesh_3dtk6" )

[node name="PainSFX" parent="." instance=ExtResource( "2_teo3o" )]
transform = Transform3D(1, 0, 0, 0, 1, 0, 0, 0, 1, 0, 0.124109, 0)
SoundClip = "res://Assets/SFX/Player_Pain_01.wav"
PlayUntilEnd = true
